<?xml version="1.0" encoding="UTF-8" standalone="no"?>
<!-- Created with Inkscape (http://www.inkscape.org/) -->
<svg
   xmlns:dc="http://purl.org/dc/elements/1.1/"
   xmlns:cc="http://web.resource.org/cc/"
   xmlns:rdf="http://www.w3.org/1999/02/22-rdf-syntax-ns#"
   xmlns:svg="http://www.w3.org/2000/svg"
   xmlns="http://www.w3.org/2000/svg"
   xmlns:xlink="http://www.w3.org/1999/xlink"
   xmlns:sodipodi="http://sodipodi.sourceforge.net/DTD/sodipodi-0.dtd"
   xmlns:inkscape="http://www.inkscape.org/namespaces/inkscape"
   width="210mm"
   height="297mm"
   id="svg2"
   sodipodi:version="0.32"
   inkscape:version="0.45.1"
   sodipodi:docbase="C:\wamp\www\ranchbe\img"
   sodipodi:docname="logoTexteRanchBE.svg"
   inkscape:output_extension="org.inkscape.output.svg.inkscape"
   inkscape:export-filename="C:\wamp\www\ranchbe\img\ranchBe_logo_190.png"
   inkscape:export-xdpi="29.263458"
   inkscape:export-ydpi="29.263458">
  <defs
     id="defs4">
    <linearGradient
       inkscape:collect="always"
       id="linearGradient4828">
      <stop
         style="stop-color:#000000;stop-opacity:1;"
         offset="0"
         id="stop4830" />
      <stop
         style="stop-color:#000000;stop-opacity:0;"
         offset="1"
         id="stop4832" />
    </linearGradient>
    <linearGradient
       id="linearGradient4676">
      <stop
         style="stop-color:#000000;stop-opacity:1;"
         offset="0"
         id="stop4678" />
      <stop
         style="stop-color:#000000;stop-opacity:0;"
         offset="1"
         id="stop4680" />
    </linearGradient>
    <linearGradient
       id="linearGradient3416">
      <stop
         style="stop-color:#99853b;stop-opacity:1;"
         offset="0"
         id="stop3418" />
      <stop
         style="stop-color:#c8ae4e;stop-opacity:0.26666668;"
         offset="1"
         id="stop3420" />
    </linearGradient>
    <linearGradient
       inkscape:collect="always"
       xlink:href="#linearGradient3416"
       id="linearGradient3422"
       x1="675.72302"
       y1="772.13269"
       x2="46.106968"
       y2="56.344769"
       gradientUnits="userSpaceOnUse" />
    <radialGradient
       inkscape:collect="always"
       xlink:href="#linearGradient4828"
       id="radialGradient4834"
       cx="552.61323"
       cy="295.52259"
       fx="552.61323"
       fy="295.52259"
       r="503.64754"
       gradientTransform="matrix(1,0,0,0.2330087,0,226.66326)"
       gradientUnits="userSpaceOnUse" />
    <clipPath
       clipPathUnits="userSpaceOnUse"
       id="clipPath10878">
      <rect
         style="opacity:0.33333333;fill:#c3d99c;fill-opacity:1;stroke:#27779d;stroke-width:1.13700581;stroke-linejoin:miter;stroke-miterlimit:4;stroke-dasharray:none;stroke-opacity:1"
         id="rect10880"
         width="609.98016"
         height="371.58414"
         x="-620.15778"
         y="195.8288"
         rx="0"
         ry="0"
         clip-path="none" />
    </clipPath>
    <clipPath
       clipPathUnits="userSpaceOnUse"
       id="clipPath12824">
      <rect
         style="opacity:0.33333333;fill:#baa68a;fill-opacity:1;stroke:#27779d;stroke-width:1.74150681;stroke-linejoin:miter;stroke-miterlimit:4;stroke-dasharray:none;stroke-opacity:1"
         id="rect12826"
         width="570.67212"
         height="387.81494"
         x="823.23547"
         y="175.5976" />
    </clipPath>
    <clipPath
       clipPathUnits="userSpaceOnUse"
       id="clipPath12898">
      <path
         style="fill:none;fill-opacity:0.75;fill-rule:evenodd;stroke:#000000;stroke-width:0.97178984px;stroke-linecap:butt;stroke-linejoin:miter;stroke-opacity:1"
         d="M 1435.7284,130.76046 L 1435.7284,540.79437 L 1210.004,542.38199 L 1205.7182,563.80486 L 799.98589,563.80486 L 799.98589,366.84385 L 1067.1406,128.06236 L 1435.7284,130.76046 z "
         id="path12900"
         sodipodi:nodetypes="cccccccc" />
    </clipPath>
    <radialGradient
       inkscape:collect="always"
       xlink:href="#linearGradient4828"
       id="radialGradient14975"
       gradientUnits="userSpaceOnUse"
       gradientTransform="matrix(1,0,0,0.2330087,0,226.66326)"
       cx="552.61323"
       cy="295.52259"
       fx="552.61323"
       fy="295.52259"
       r="503.64754" />
    <filter
       inkscape:collect="always"
       id="filter15065">
      <feGaussianBlur
         inkscape:collect="always"
         stdDeviation="2.9219526"
         id="feGaussianBlur15067" />
    </filter>
    <linearGradient
       inkscape:collect="always"
       xlink:href="#linearGradient3416"
       id="linearGradient15093"
       gradientUnits="userSpaceOnUse"
       x1="599.14447"
       y1="616.47406"
       x2="120.74292"
       y2="149.37146" />
    <radialGradient
       inkscape:collect="always"
       xlink:href="#linearGradient4828"
       id="radialGradient15095"
       gradientUnits="userSpaceOnUse"
       gradientTransform="matrix(1,0,0,0.2330087,0,226.66326)"
       cx="552.61323"
       cy="295.52259"
       fx="552.61323"
       fy="295.52259"
       r="503.64754" />
    <radialGradient
       inkscape:collect="always"
       xlink:href="#linearGradient4828"
       id="radialGradient15097"
       gradientUnits="userSpaceOnUse"
       gradientTransform="matrix(1,0,0,0.2330087,0,226.66326)"
       cx="552.61323"
       cy="295.52259"
       fx="552.61323"
       fy="295.52259"
       r="503.64754" />
    <filter
       inkscape:collect="always"
       x="-0.05193269"
       width="1.1038654"
       y="-0.55613057"
       height="2.1122611"
       id="filter5617">
      <feGaussianBlur
         inkscape:collect="always"
         stdDeviation="10.480077"
         id="feGaussianBlur5619" />
    </filter>
    <filter
       inkscape:collect="always"
       id="filter6876">
      <feGaussianBlur
         inkscape:collect="always"
         stdDeviation="16.389565"
         id="feGaussianBlur6878" />
    </filter>
    <filter
       inkscape:collect="always"
       x="-0.56510417"
       width="2.1302083"
       y="-0.10395763"
       height="1.2079153"
       id="filter8157">
      <feGaussianBlur
         inkscape:collect="always"
         stdDeviation="22.18357"
         id="feGaussianBlur8159" />
    </filter>
  </defs>
  <sodipodi:namedview
     id="base"
     pagecolor="#ffffff"
     bordercolor="#666666"
     borderopacity="1.0"
     inkscape:pageopacity="0.0"
     inkscape:pageshadow="2"
     inkscape:zoom="0.49497475"
     inkscape:cx="763.21134"
     inkscape:cy="469.21551"
     inkscape:document-units="px"
     inkscape:current-layer="layer3"
     showguides="true"
     inkscape:guide-bbox="true"
     inkscape:window-width="1280"
     inkscape:window-height="744"
     inkscape:window-x="0"
     inkscape:window-y="22" />
  <metadata
     id="metadata7">
    <rdf:RDF>
      <cc:Work
         rdf:about="">
        <dc:format>image/svg+xml</dc:format>
        <dc:type
           rdf:resource="http://purl.org/dc/dcmitype/StillImage" />
      </cc:Work>
    </rdf:RDF>
  </metadata>
  <g
     inkscape:label="Calque 1"
     inkscape:groupmode="layer"
     id="layer1">
    <rect
       style="fill:#ff6600"
       id="rect2162"
       width="0"
       height="48.57143"
       x="300"
       y="440.93362" />
  </g>
  <g
     inkscape:groupmode="layer"
     id="layer2"
     inkscape:label="rerte" />
  <g
     inkscape:groupmode="layer"
     id="layer3"
     inkscape:label="dsfsdf">
    <rect
       style="fill:url(#linearGradient15093);fill-opacity:1;stroke:#9c8f43;stroke-width:3.9000001;stroke-linejoin:miter;stroke-miterlimit:4;stroke-dasharray:none;stroke-opacity:0.82110087;filter:url(#filter15065)"
       id="rect2160"
       width="579.9256"
       height="580.00696"
       x="73.851883"
       y="89.953087"
       transform="matrix(1.0303856,-4.2240746e-4,1.2781433e-3,0.3405272,10.398152,571.64723)"
       ry="234.59764"
       rx="74.916" />
    <a
       id="a13987"
       transform="translate(23.530096,119.05443)">
      <flowRoot
         transform="matrix(1.551618,0,-0.5506934,1.8262954,433.89505,-771.11319)"
         style="font-size:72px;font-style:normal;font-family:Arial Narrow"
         id="flowRoot4836"
         xml:space="preserve"><flowRegion
           id="flowRegion4838"><rect
             style="font-size:72px;font-style:normal;font-family:Arial Narrow"
             y="699.50507"
             x="45.714287"
             height="111.42857"
             width="685.71429"
             id="rect4840" /></flowRegion><flowPara
           style="font-size:72px;font-style:normal;font-weight:bold;font-family:Verdana"
           id="flowPara4842"><flowSpan
             id="flowSpan6800"
             style="fill:#1e739d;fill-opacity:1">R</flowSpan><flowSpan
             id="flowSpan4844"
             style="font-size:56px;font-weight:bold;fill:#1e739d;fill-opacity:1;font-family:Verdana">ANCH</flowSpan><flowSpan
             id="flowSpan10842"
             style="fill:#c3d99c;fill-opacity:1">BE</flowSpan></flowPara></flowRoot>    </a>
    <path
       style="opacity:0.72764228;fill:#ffffff;fill-opacity:1;fill-rule:evenodd;stroke:none;stroke-width:1px;stroke-linecap:butt;stroke-linejoin:miter;stroke-opacity:1;filter:url(#filter5617)"
       d="M 634.75399,264.43794 C 577.72475,234.96781 175.71428,240.93361 175.71428,240.93361 C 175.71428,240.93361 132.85714,250.93361 131.42857,270.93361 C 130,290.93361 179.13753,273.87824 234.85181,272.44967 C 290.5661,271.0211 423.92981,269.66609 423.92981,269.66609 L 634.75399,264.43794 z "
       id="path2222"
       transform="matrix(1.0743197,0,0,1.0315867,-36.662594,340.62133)"
       sodipodi:nodetypes="ccsscc" />
    <path
       style="opacity:0.86000001;fill:#f9f7ec;fill-opacity:0.75;fill-rule:evenodd;stroke:none;stroke-width:1px;stroke-linecap:butt;stroke-linejoin:miter;stroke-opacity:1;filter:url(#filter6876)"
       d="M 639.22263,783.54565 C 639.22263,783.54565 267.87485,788.45024 228.57143,788.07647 C 138.55401,787.23964 126.62291,777.44269 112.5823,724.72913 C 102.32645,686.22493 132.2654,272.85239 132.2654,272.85239 C 132.2654,272.85239 139.94463,511.43839 153.3894,696.95247 C 158.23938,763.87358 108.82374,729.43325 312.15156,745.49416 L 639.22263,783.54565 z "
       id="path5621"
       sodipodi:nodetypes="csscscc"
       transform="matrix(1.049669,0,0,0.3138141,-13.566777,542.80113)" />
    <path
       style="opacity:0.15040648;fill:#503030;fill-opacity:1;fill-rule:evenodd;stroke:#ffeb55;stroke-width:1px;stroke-linecap:butt;stroke-linejoin:miter;stroke-opacity:1;filter:url(#filter8157)"
       d="M 604.07678,773.37728 C 674.78746,737.01179 655.55769,725.43666 656.59916,680.62605 C 658.61845,593.74345 667.51484,475.00876 665.49605,391.4261 C 665.09788,375.32156 666.59003,332.22151 646.43023,296.73669 C 604.21688,222.43371 623.68458,312.94385 623.68458,312.94385"
       id="path6880"
       transform="matrix(0.746666,0,0,0.23206,160.93638,584.28049)"
       sodipodi:nodetypes="csssc" />
  </g>
</svg>
